docs/output.vcd
$date
	Thu Nov  2 16:36:15 2023
$end
$version
	Icarus Verilog
$end
$timescale
	10ps
$end
$scope module tb_ThreePhasePWM $end
$var wire 1 ! pwm3_out $end
$var wire 1 " pwm3_comp_out $end
$var wire 1 # pwm2_out $end
$var wire 1 $ pwm2_comp_out $end
$var wire 1 % pwm1_out $end
$var wire 1 & pwm1_comp_out $end
$var reg 1 ' clk $end
$var reg 8 ( duty_cycle [7:0] $end
$var reg 1 ) en $end
$var reg 1 * rst $end
$scope module uut $end
$var wire 1 ' clk $end
$var wire 8 + count1 [7:0] $end
$var wire 8 , count2 [7:0] $end
$var wire 8 - count3 [7:0] $end
$var wire 8 . duty_cycle [7:0] $end
$var wire 1 ) en $end
$var wire 1 * rst $end
$var wire 1 / pwm3_raw $end
$var wire 1 ! pwm3_out $end
$var wire 1 " pwm3_comp_out $end
$var wire 1 0 pwm2_raw $end
$var wire 1 # pwm2_out $end
$var wire 1 $ pwm2_comp_out $end
$var wire 1 1 pwm1_raw $end
$var wire 1 % pwm1_out $end
$var wire 1 & pwm1_comp_out $end
$var wire 1 2 latch2_q $end
$var wire 1 3 latch1_q $end
$var wire 8 4 corrected_duty_cycle [7:0] $end
$var wire 1 5 cmp2_out $end
$var wire 1 6 cmp1_out $end
$scope module PWM1 $end
$var wire 1 ' clk $end
$var wire 1 ) en $end
$var wire 1 * rst $end
$var wire 1 1 pwm_out $end
$var wire 8 7 duty_cycle [7:0] $end
$var wire 8 8 count [7:0] $end
$var wire 1 9 cmp_out $end
$scope module c1 $end
$var wire 8 : duty_cycle [7:0] $end
$var wire 8 ; count [7:0] $end
$var wire 1 9 cmp_out $end
$upscope $end
$scope module d1 $end
$var wire 1 ' clk $end
$var wire 1 9 d $end
$var wire 1 * rst $end
$var reg 1 1 q $end
$upscope $end
$scope module u1 $end
$var wire 1 ' clk $end
$var wire 1 ) en $end
$var wire 1 * rst $end
$var wire 8 < count [7:0] $end
$var reg 8 = count_reg [7:0] $end
$upscope $end
$upscope $end
$scope module PWM2 $end
$var wire 1 ' clk $end
$var wire 1 > en $end
$var wire 1 * rst $end
$var wire 1 0 pwm_out $end
$var wire 8 ? duty_cycle [7:0] $end
$var wire 8 @ count [7:0] $end
$var wire 1 A cmp_out $end
$scope module c1 $end
$var wire 8 B duty_cycle [7:0] $end
$var wire 8 C count [7:0] $end
$var wire 1 A cmp_out $end
$upscope $end
$scope module d1 $end
$var wire 1 ' clk $end
$var wire 1 A d $end
$var wire 1 * rst $end
$var reg 1 0 q $end
$upscope $end
$scope module u1 $end
$var wire 1 ' clk $end
$var wire 1 > en $end
$var wire 1 * rst $end
$var wire 8 D count [7:0] $end
$var reg 8 E count_reg [7:0] $end
$upscope $end
$upscope $end
$scope module PWM3 $end
$var wire 1 ' clk $end
$var wire 1 F en $end
$var wire 1 * rst $end
$var wire 1 / pwm_out $end
$var wire 8 G duty_cycle [7:0] $end
$var wire 8 H count [7:0] $end
$var wire 1 I cmp_out $end
$scope module c1 $end
$var wire 8 J duty_cycle [7:0] $end
$var wire 8 K count [7:0] $end
$var wire 1 I cmp_out $end
$upscope $end
$scope module d1 $end
$var wire 1 ' clk $end
$var wire 1 I d $end
$var wire 1 * rst $end
$var reg 1 / q $end
$upscope $end
$scope module u1 $end
$var wire 1 ' clk $end
$var wire 1 F en $end
$var wire 1 * rst $end
$var wire 8 L count [7:0] $end
$var reg 8 M count_reg [7:0] $end
$upscope $end
$upscope $end
$scope module cmp1 $end
$var wire 8 N count [7:0] $end
$var wire 1 6 cmp_out $end
$upscope $end
$scope module cmp2 $end
$var wire 8 O count [7:0] $end
$var wire 1 5 cmp_out $end
$upscope $end
$scope module dcc $end
$var wire 8 P duty_cycle_in [7:0] $end
$var wire 8 Q duty_cycle_out [7:0] $end
$upscope $end
$scope module dtg1 $end
$var wire 1 ' clk $end
$var wire 1 & comp_pwm_out $end
$var wire 1 1 pwm_in $end
$var wire 1 % pwm_out $end
$var wire 1 R dff4_out $end
$var wire 1 S dff3_out $end
$var wire 1 T dff2_out $end
$var wire 1 U dff1_out $end
$scope module dff1 $end
$var wire 1 ' clk $end
$var wire 1 1 d $end
$var wire 1 V rst $end
$var reg 1 U q $end
$upscope $end
$scope module dff2 $end
$var wire 1 ' clk $end
$var wire 1 U d $end
$var wire 1 W rst $end
$var reg 1 T q $end
$upscope $end
$scope module dff3 $end
$var wire 1 ' clk $end
$var wire 1 T d $end
$var wire 1 X rst $end
$var reg 1 S q $end
$upscope $end
$scope module dff4 $end
$var wire 1 ' clk $end
$var wire 1 S d $end
$var wire 1 Y rst $end
$var reg 1 R q $end
$upscope $end
$upscope $end
$scope module dtg2 $end
$var wire 1 ' clk $end
$var wire 1 $ comp_pwm_out $end
$var wire 1 0 pwm_in $end
$var wire 1 # pwm_out $end
$var wire 1 Z dff4_out $end
$var wire 1 [ dff3_out $end
$var wire 1 \ dff2_out $end
$var wire 1 ] dff1_out $end
$scope module dff1 $end
$var wire 1 ' clk $end
$var wire 1 0 d $end
$var wire 1 ^ rst $end
$var reg 1 ] q $end
$upscope $end
$scope module dff2 $end
$var wire 1 ' clk $end
$var wire 1 ] d $end
$var wire 1 _ rst $end
$var reg 1 \ q $end
$upscope $end
$scope module dff3 $end
$var wire 1 ' clk $end
$var wire 1 \ d $end
$var wire 1 ` rst $end
$var reg 1 [ q $end
$upscope $end
$scope module dff4 $end
$var wire 1 ' clk $end
$var wire 1 [ d $end
$var wire 1 a rst $end
$var reg 1 Z q $end
$upscope $end
$upscope $end
$scope module dtg3 $end
$var wire 1 ' clk $end
$var wire 1 " comp_pwm_out $end
$var wire 1 / pwm_in $end
$var wire 1 ! pwm_out $end
$var wire 1 b dff4_out $end
$var wire 1 c dff3_out $end
$var wire 1 d dff2_out $end
$var wire 1 e dff1_out $end
$scope module dff1 $end
$var wire 1 ' clk $end
$var wire 1 / d $end
$var wire 1 f rst $end
$var reg 1 e q $end
$upscope $end
$scope module dff2 $end
$var wire 1 ' clk $end
$var wire 1 e d $end
$var wire 1 g rst $end
$var reg 1 d q $end
$upscope $end
$scope module dff3 $end
$var wire 1 ' clk $end
$var wire 1 d d $end
$var wire 1 h rst $end
$var reg 1 c q $end
$upscope $end
$scope module dff4 $end
$var wire 1 ' clk $end
$var wire 1 c d $end
$var wire 1 i rst $end
$var reg 1 b q $end
$upscope $end
$upscope $end
$scope module latch1 $end
$var wire 1 j R $end
$var wire 1 6 S $end
$var wire 1 ) en $end
$var wire 1 * rst $end
$var reg 1 3 Q $end
$upscope $end
$scope module latch2 $end
$var wire 1 k R $end
$var wire 1 5 S $end
$var wire 1 ) en $end
$var wire 1 * rst $end
$var reg 1 2 Q $end
$upscope $end
$upscope $end
$upscope $end
$enddefinitions $end
#0
$dumpvars
0k
0j
0i
0h
0g
0f
xe
xd
xc
xb
0a
0`
0_
0^
x]
x\
x[
xZ
0Y
0X
0W
0V
xU
xT
xS
xR
b11111111 Q
b0 P
b0 O
b0 N
b0 M
b0 L
b0 K
b11111111 J
0I
b0 H
b11111111 G
0F
b0 E
b0 D
b0 C
b11111111 B
0A
b0 @
b11111111 ?
0>
b0 =
b0 <
b0 ;
b11111111 :
09
b0 8
b11111111 7
06
05
b11111111 4
03
02
01
00
0/
b0 .
b0 -
b0 ,
b0 +
1*
0)
b0 (
0'
x&
0%
x$
0#
x"
0!
$end
#2000
b1 +
b1 N
b1 8
b1 ;
b1 <
b1 =
0U
0]
0e
1)
0*
1'
#4000
0'
#6000
b10 +
b10 N
b10 8
b10 ;
b10 <
b10 =
0T
0\
0d
1'
#8000
0'
#10000
b11 +
b11 N
b11 8
b11 ;
b11 <
b11 =
0S
0[
0c
1'
#12000
0'
#14000
1&
1$
1"
b100 +
b100 N
b100 8
b100 ;
b100 <
b100 =
0R
0Z
0b
1'
#16000
0'
#18000
b101 +
b101 N
b101 8
b101 ;
b101 <
b101 =
1'
#20000
0'
#22000
b110 +
b110 N
b110 8
b110 ;
b110 <
b110 =
1'
#24000
0'
#26000
b111 +
b111 N
b111 8
b111 ;
b111 <
b111 =
1'
#28000
0'
#30000
b1000 +
b1000 N
b1000 8
b1000 ;
b1000 <
b1000 =
1'
#32000
0'
#34000
b1001 +
b1001 N
b1001 8
b1001 ;
b1001 <
b1001 =
1'
#36000
0'
#38000
b1010 +
b1010 N
b1010 8
b1010 ;
b1010 <
b1010 =
1'
#40000
0'
#42000
b1011 +
b1011 N
b1011 8
b1011 ;
b1011 <
b1011 =
1'
#44000
0'
#46000
b1100 +
b1100 N
b1100 8
b1100 ;
b1100 <
b1100 =
1'
#48000
0'
#50000
b1101 +
b1101 N
b1101 8
b1101 ;
b1101 <
b1101 =
1'
#52000
0'
#54000
b1110 +
b1110 N
b1110 8
b1110 ;
b1110 <
b1110 =
1'
#56000
0'
#58000
b1111 +
b1111 N
b1111 8
b1111 ;
b1111 <
b1111 =
1'
#60000
0'
#62000
b10000 +
b10000 N
b10000 8
b10000 ;
b10000 <
b10000 =
1'
#64000
0'
#66000
b10001 +
b10001 N
b10001 8
b10001 ;
b10001 <
b10001 =
1'
#68000
0'
#70000
b10010 +
b10010 N
b10010 8
b10010 ;
b10010 <
b10010 =
1'
#72000
0'
#74000
b10011 +
b10011 N
b10011 8
b10011 ;
b10011 <
b10011 =
1'
#76000
0'
#78000
b10100 +
b10100 N
b10100 8
b10100 ;
b10100 <
b10100 =
1'
#80000
0'
#82000
b10101 +
b10101 N
b10101 8
b10101 ;
b10101 <
b10101 =
1'
#84000
0'
#86000
b10110 +
b10110 N
b10110 8
b10110 ;
b10110 <
b10110 =
1'
#88000
0'
#90000
b10111 +
b10111 N
b10111 8
b10111 ;
b10111 <
b10111 =
1'
#92000
0'
#94000
b11000 +
b11000 N
b11000 8
b11000 ;
b11000 <
b11000 =
1'
#96000
0'
#98000
b11001 +
b11001 N
b11001 8
b11001 ;
b11001 <
b11001 =
1'
#100000
0'
#102000
b11010 +
b11010 N
b11010 8
b11010 ;
b11010 <
b11010 =
1'
#104000
0'
#106000
b11011 +
b11011 N
b11011 8
b11011 ;
b11011 <
b11011 =
1'
#108000
0'
#110000
b11100 +
b11100 N
b11100 8
b11100 ;
b11100 <
b11100 =
1'
#112000
0'
#114000
b11101 +
b11101 N
b11101 8
b11101 ;
b11101 <
b11101 =
1'
#116000
0'
#118000
b11110 +
b11110 N
b11110 8
b11110 ;
b11110 <
b11110 =
1'
#120000
0'
#122000
b11111 +
b11111 N
b11111 8
b11111 ;
b11111 <
b11111 =
1'
#124000
0'
#126000
b100000 +
b100000 N
b100000 8
b100000 ;
b100000 <
b100000 =
1'
#128000
0'
#130000
b100001 +
b100001 N
b100001 8
b100001 ;
b100001 <
b100001 =
1'
#132000
0'
#134000
b100010 +
b100010 N
b100010 8
b100010 ;
b100010 <
b100010 =
1'
#136000
0'
#138000
b100011 +
b100011 N
b100011 8
b100011 ;
b100011 <
b100011 =
1'
#140000
0'
#142000
b100100 +
b100100 N
b100100 8
b100100 ;
b100100 <
b100100 =
1'
#144000
0'
#146000
b100101 +
b100101 N
b100101 8
b100101 ;
b100101 <
b100101 =
1'
#148000
0'
#150000
b100110 +
b100110 N
b100110 8
b100110 ;
b100110 <
b100110 =
1'
#152000
0'
#154000
b100111 +
b100111 N
b100111 8
b100111 ;
b100111 <
b100111 =
1'
#156000
0'
#158000
b101000 +
b101000 N
b101000 8
b101000 ;
b101000 <
b101000 =
1'
#160000
0'
#162000
b101001 +
b101001 N
b101001 8
b101001 ;
b101001 <
b101001 =
1'
#164000
0'
#166000
b101010 +
b101010 N
b101010 8
b101010 ;
b101010 <
b101010 =
1'
#168000
0'
#170000
b101011 +
b101011 N
b101011 8
b101011 ;
b101011 <
b101011 =
1'
#172000
0'
#174000
b101100 +
b101100 N
b101100 8
b101100 ;
b101100 <
b101100 =
1'
#176000
0'
#178000
b101101 +
b101101 N
b101101 8
b101101 ;
b101101 <
b101101 =
1'
#180000
0'
#182000
b101110 +
b101110 N
b101110 8
b101110 ;
b101110 <
b101110 =
1'
#184000
0'
#186000
b101111 +
b101111 N
b101111 8
b101111 ;
b101111 <
b101111 =
1'
#188000
0'
#190000
b110000 +
b110000 N
b110000 8
b110000 ;
b110000 <
b110000 =
1'
#192000
0'
#194000
b110001 +
b110001 N
b110001 8
b110001 ;
b110001 <
b110001 =
1'
#196000
0'
#198000
b110010 +
b110010 N
b110010 8
b110010 ;
b110010 <
b110010 =
1'
#200000
0'
#202000
b110011 +
b110011 N
b110011 8
b110011 ;
b110011 <
b110011 =
1'
#204000
0'
#206000
b110100 +
b110100 N
b110100 8
b110100 ;
b110100 <
b110100 =
1'
#208000
0'
#210000
b110101 +
b110101 N
b110101 8
b110101 ;
b110101 <
b110101 =
1'
#212000
0'
#214000
b110110 +
b110110 N
b110110 8
b110110 ;
b110110 <
b110110 =
1'
#216000
0'
#218000
b110111 +
b110111 N
b110111 8
b110111 ;
b110111 <
b110111 =
1'
#220000
0'
#222000
b111000 +
b111000 N
b111000 8
b111000 ;
b111000 <
b111000 =
1'
#224000
0'
#226000
b111001 +
b111001 N
b111001 8
b111001 ;
b111001 <
b111001 =
1'
#228000
0'
#230000
b111010 +
b111010 N
b111010 8
b111010 ;
b111010 <
b111010 =
1'
#232000
0'
#234000
b111011 +
b111011 N
b111011 8
b111011 ;
b111011 <
b111011 =
1'
#236000
0'
#238000
b111100 +
b111100 N
b111100 8
b111100 ;
b111100 <
b111100 =
1'
#240000
0'
#242000
b111101 +
b111101 N
b111101 8
b111101 ;
b111101 <
b111101 =
1'
#244000
0'
#246000
b111110 +
b111110 N
b111110 8
b111110 ;
b111110 <
b111110 =
1'
#248000
0'
#250000
b111111 +
b111111 N
b111111 8
b111111 ;
b111111 <
b111111 =
1'
#252000
0'
#254000
b1000000 +
b1000000 N
b1000000 8
b1000000 ;
b1000000 <
b1000000 =
1'
#256000
0'
#258000
b1000001 +
b1000001 N
b1000001 8
b1000001 ;
b1000001 <
b1000001 =
1'
#260000
0'
#262000
b1000010 +
b1000010 N
b1000010 8
b1000010 ;
b1000010 <
b1000010 =
1'
#264000
0'
#266000
b1000011 +
b1000011 N
b1000011 8
b1000011 ;
b1000011 <
b1000011 =
1'
#268000
0'
#270000
b1000100 +
b1000100 N
b1000100 8
b1000100 ;
b1000100 <
b1000100 =
1'
#272000
0'
#274000
b1000101 +
b1000101 N
b1000101 8
b1000101 ;
b1000101 <
b1000101 =
1'
#276000
0'
#278000
b1000110 +
b1000110 N
b1000110 8
b1000110 ;
b1000110 <
b1000110 =
1'
#280000
0'
#282000
b1000111 +
b1000111 N
b1000111 8
b1000111 ;
b1000111 <
b1000111 =
1'
#284000
0'
#286000
b1001000 +
b1001000 N
b1001000 8
b1001000 ;
b1001000 <
b1001000 =
1'
#288000
0'
#290000
b1001001 +
b1001001 N
b1001001 8
b1001001 ;
b1001001 <
b1001001 =
1'
#292000
0'
#294000
b1001010 +
b1001010 N
b1001010 8
b1001010 ;
b1001010 <
b1001010 =
1'
#296000
0'
#298000
b1001011 +
b1001011 N
b1001011 8
b1001011 ;
b1001011 <
b1001011 =
1'
#300000
0'
#302000
b1001100 +
b1001100 N
b1001100 8
b1001100 ;
b1001100 <
b1001100 =
1'
#304000
0'
#306000
b1001101 +
b1001101 N
b1001101 8
b1001101 ;
b1001101 <
b1001101 =
1'
#308000
0'
#310000
b1001110 +
b1001110 N
b1001110 8
b1001110 ;
b1001110 <
b1001110 =
1'
#312000
0'
#314000
b1001111 +
b1001111 N
b1001111 8
b1001111 ;
b1001111 <
b1001111 =
1'
#316000
0'
#318000
b1010000 +
b1010000 N
b1010000 8
b1010000 ;
b1010000 <
b1010000 =
1'
#320000
0'
#322000
b1010001 +
b1010001 N
b1010001 8
b1010001 ;
b1010001 <
b1010001 =
1'
#324000
0'
#326000
b1010010 +
b1010010 N
b1010010 8
b1010010 ;
b1010010 <
b1010010 =
1'
#328000
0'
#330000
b1010011 +
b1010011 N
b1010011 8
b1010011 ;
b1010011 <
b1010011 =
1'
#332000
0'
#334000
b1010100 +
b1010100 N
b1010100 8
b1010100 ;
b1010100 <
b1010100 =
1'
#336000
0'
#338000
1>
13
16
b1010101 +
b1010101 N
b1010101 8
b1010101 ;
b1010101 <
b1010101 =
1'
#340000
0'
#342000
b1010110 +
b1010110 N
b1010110 8
b1010110 ;
b1010110 <
b1010110 =
b1 ,
b1 O
b1 @
b1 C
b1 D
b1 E
1'
#344000
0'
#346000
b10 ,
b10 O
b10 @
b10 C
b10 D
b10 E
b1010111 +
b1010111 N
b1010111 8
b1010111 ;
b1010111 <
b1010111 =
1'
#348000
0'
#350000
b1011000 +
b1011000 N
b1011000 8
b1011000 ;
b1011000 <
b1011000 =
b11 ,
b11 O
b11 @
b11 C
b11 D
b11 E
1'
#352000
0'
#354000
b100 ,
b100 O
b100 @
b100 C
b100 D
b100 E
b1011001 +
b1011001 N
b1011001 8
b1011001 ;
b1011001 <
b1011001 =
1'
#356000
0'
#358000
b1011010 +
b1011010 N
b1011010 8
b1011010 ;
b1011010 <
b1011010 =
b101 ,
b101 O
b101 @
b101 C
b101 D
b101 E
1'
#360000
0'
#362000
b110 ,
b110 O
b110 @
b110 C
b110 D
b110 E
b1011011 +
b1011011 N
b1011011 8
b1011011 ;
b1011011 <
b1011011 =
1'
#364000
0'
#366000
b1011100 +
b1011100 N
b1011100 8
b1011100 ;
b1011100 <
b1011100 =
b111 ,
b111 O
b111 @
b111 C
b111 D
b111 E
1'
#368000
0'
#370000
b1000 ,
b1000 O
b1000 @
b1000 C
b1000 D
b1000 E
b1011101 +
b1011101 N
b1011101 8
b1011101 ;
b1011101 <
b1011101 =
1'
#372000
0'
#374000
b1011110 +
b1011110 N
b1011110 8
b1011110 ;
b1011110 <
b1011110 =
b1001 ,
b1001 O
b1001 @
b1001 C
b1001 D
b1001 E
1'
#376000
0'
#378000
b1010 ,
b1010 O
b1010 @
b1010 C
b1010 D
b1010 E
b1011111 +
b1011111 N
b1011111 8
b1011111 ;
b1011111 <
b1011111 =
1'
#380000
0'
#382000
b1100000 +
b1100000 N
b1100000 8
b1100000 ;
b1100000 <
b1100000 =
b1011 ,
b1011 O
b1011 @
b1011 C
b1011 D
b1011 E
1'
#384000
0'
#386000
b1100 ,
b1100 O
b1100 @
b1100 C
b1100 D
b1100 E
b1100001 +
b1100001 N
b1100001 8
b1100001 ;
b1100001 <
b1100001 =
1'
#388000
0'
#390000
b1100010 +
b1100010 N
b1100010 8
b1100010 ;
b1100010 <
b1100010 =
b1101 ,
b1101 O
b1101 @
b1101 C
b1101 D
b1101 E
1'
#392000
0'
#394000
b1110 ,
b1110 O
b1110 @
b1110 C
b1110 D
b1110 E
b1100011 +
b1100011 N
b1100011 8
b1100011 ;
b1100011 <
b1100011 =
1'
#396000
0'
#398000
b1100100 +
b1100100 N
b1100100 8
b1100100 ;
b1100100 <
b1100100 =
b1111 ,
b1111 O
b1111 @
b1111 C
b1111 D
b1111 E
1'
#400000
0'
#402000
b10000 ,
b10000 O
b10000 @
b10000 C
b10000 D
b10000 E
b1100101 +
b1100101 N
b1100101 8
b1100101 ;
b1100101 <
b1100101 =
1'
#404000
0'
#406000
b1100110 +
b1100110 N
b1100110 8
b1100110 ;
b1100110 <
b1100110 =
b10001 ,
b10001 O
b10001 @
b10001 C
b10001 D
b10001 E
1'
#408000
0'
#410000
b10010 ,
b10010 O
b10010 @
b10010 C
b10010 D
b10010 E
b1100111 +
b1100111 N
b1100111 8
b1100111 ;
b1100111 <
b1100111 =
1'
#412000
0'
#414000
b1101000 +
b1101000 N
b1101000 8
b1101000 ;
b1101000 <
b1101000 =
b10011 ,
b10011 O
b10011 @
b10011 C
b10011 D
b10011 E
1'
#416000
0'
#418000
b10100 ,
b10100 O
b10100 @
b10100 C
b10100 D
b10100 E
b1101001 +
b1101001 N
b1101001 8
b1101001 ;
b1101001 <
b1101001 =
1'
#420000
0'
#422000
b1101010 +
b1101010 N
b1101010 8
b1101010 ;
b1101010 <
b1101010 =
b10101 ,
b10101 O
b10101 @
b10101 C
b10101 D
b10101 E
1'
#424000
0'
#426000
b10110 ,
b10110 O
b10110 @
b10110 C
b10110 D
b10110 E
b1101011 +
b1101011 N
b1101011 8
b1101011 ;
b1101011 <
b1101011 =
1'
#428000
0'
#430000
b1101100 +
b1101100 N
b1101100 8
b1101100 ;
b1101100 <
b1101100 =
b10111 ,
b10111 O
b10111 @
b10111 C
b10111 D
b10111 E
1'
#432000
0'
#434000
b11000 ,
b11000 O
b11000 @
b11000 C
b11000 D
b11000 E
b1101101 +
b1101101 N
b1101101 8
b1101101 ;
b1101101 <
b1101101 =
1'
#436000
0'
#438000
b1101110 +
b1101110 N
b1101110 8
b1101110 ;
b1101110 <
b1101110 =
b11001 ,
b11001 O
b11001 @
b11001 C
b11001 D
b11001 E
1'
#440000
0'
#442000
b11010 ,
b11010 O
b11010 @
b11010 C
b11010 D
b11010 E
b1101111 +
b1101111 N
b1101111 8
b1101111 ;
b1101111 <
b1101111 =
1'
#444000
0'
#446000
b1110000 +
b1110000 N
b1110000 8
b1110000 ;
b1110000 <
b1110000 =
b11011 ,
b11011 O
b11011 @
b11011 C
b11011 D
b11011 E
1'
#448000
0'
#450000
b11100 ,
b11100 O
b11100 @
b11100 C
b11100 D
b11100 E
b1110001 +
b1110001 N
b1110001 8
b1110001 ;
b1110001 <
b1110001 =
1'
#452000
0'
#454000
b1110010 +
b1110010 N
b1110010 8
b1110010 ;
b1110010 <
b1110010 =
b11101 ,
b11101 O
b11101 @
b11101 C
b11101 D
b11101 E
1'
#456000
0'
#458000
b11110 ,
b11110 O
b11110 @
b11110 C
b11110 D
b11110 E
b1110011 +
b1110011 N
b1110011 8
b1110011 ;
b1110011 <
b1110011 =
1'
#460000
0'
#462000
b1110100 +
b1110100 N
b1110100 8
b1110100 ;
b1110100 <
b1110100 =
b11111 ,
b11111 O
b11111 @
b11111 C
b11111 D
b11111 E
1'
#464000
0'
#466000
b100000 ,
b100000 O
b100000 @
b100000 C
b100000 D
b100000 E
b1110101 +
b1110101 N
b1110101 8
b1110101 ;
b1110101 <
b1110101 =
1'
#468000
0'
#470000
b1110110 +
b1110110 N
b1110110 8
b1110110 ;
b1110110 <
b1110110 =
b100001 ,
b100001 O
b100001 @
b100001 C
b100001 D
b100001 E
1'
#472000
0'
#474000
b100010 ,
b100010 O
b100010 @
b100010 C
b100010 D
b100010 E
b1110111 +
b1110111 N
b1110111 8
b1110111 ;
b1110111 <
b1110111 =
1'
#476000
0'
#478000
b1111000 +
b1111000 N
b1111000 8
b1111000 ;
b1111000 <
b1111000 =
b100011 ,
b100011 O
b100011 @
b100011 C
b100011 D
b100011 E
1'
#480000
0'
#482000
b100100 ,
b100100 O
b100100 @
b100100 C
b100100 D
b100100 E
b1111001 +
b1111001 N
b1111001 8
b1111001 ;
b1111001 <
b1111001 =
1'
#484000
0'
#486000
b1111010 +
b1111010 N
b1111010 8
b1111010 ;
b1111010 <
b1111010 =
b100101 ,
b100101 O
b100101 @
b100101 C
b100101 D
b100101 E
1'
#488000
0'
#490000
b100110 ,
b100110 O
b100110 @
b100110 C
b100110 D
b100110 E
b1111011 +
b1111011 N
b1111011 8
b1111011 ;
b1111011 <
b1111011 =
1'
#492000
0'
#494000
b1111100 +
b1111100 N
b1111100 8
b1111100 ;
b1111100 <
b1111100 =
b100111 ,
b100111 O
b100111 @
b100111 C
b100111 D
b100111 E
1'
#496000
0'
#498000
b101000 ,
b101000 O
b101000 @
b101000 C
b101000 D
b101000 E
b1111101 +
b1111101 N
b1111101 8
b1111101 ;
b1111101 <
b1111101 =
1'
#500000
0'
#502000
b1111110 +
b1111110 N
b1111110 8
b1111110 ;
b1111110 <
b1111110 =
b101001 ,
b101001 O
b101001 @
b101001 C
b101001 D
b101001 E
1'
#504000
0'
#506000
b101010 ,
b101010 O
b101010 @
b101010 C
b101010 D
b101010 E
b1111111 +
b1111111 N
b1111111 8
b1111111 ;
b1111111 <
b1111111 =
1'
#508000
0'
#510000
b10000000 +
b10000000 N
b10000000 8
b10000000 ;
b10000000 <
b10000000 =
b101011 ,
b101011 O
b101011 @
b101011 C
b101011 D
b101011 E
1'
#512000
0'
#514000
b101100 ,
b101100 O
b101100 @
b101100 C
b101100 D
b101100 E
b10000001 +
b10000001 N
b10000001 8
b10000001 ;
b10000001 <
b10000001 =
1'
b10111111 4
b10111111 7
b10111111 :
b10111111 ?
b10111111 B
b10111111 G
b10111111 J
b10111111 Q
b1000000 (
b1000000 .
b1000000 P
#516000
0'
#518000
b10000010 +
b10000010 N
b10000010 8
b10000010 ;
b10000010 <
b10000010 =
b101101 ,
b101101 O
b101101 @
b101101 C
b101101 D
b101101 E
1'
#520000
0'
#522000
b101110 ,
b101110 O
b101110 @
b101110 C
b101110 D
b101110 E
b10000011 +
b10000011 N
b10000011 8
b10000011 ;
b10000011 <
b10000011 =
1'
#524000
0'
#526000
b10000100 +
b10000100 N
b10000100 8
b10000100 ;
b10000100 <
b10000100 =
b101111 ,
b101111 O
b101111 @
b101111 C
b101111 D
b101111 E
1'
#528000
0'
#530000
b110000 ,
b110000 O
b110000 @
b110000 C
b110000 D
b110000 E
b10000101 +
b10000101 N
b10000101 8
b10000101 ;
b10000101 <
b10000101 =
1'
#532000
0'
#534000
b10000110 +
b10000110 N
b10000110 8
b10000110 ;
b10000110 <
b10000110 =
b110001 ,
b110001 O
b110001 @
b110001 C
b110001 D
b110001 E
1'
#536000
0'
#538000
b110010 ,
b110010 O
b110010 @
b110010 C
b110010 D
b110010 E
b10000111 +
b10000111 N
b10000111 8
b10000111 ;
b10000111 <
b10000111 =
1'
#540000
0'
#542000
b10001000 +
b10001000 N
b10001000 8
b10001000 ;
b10001000 <
b10001000 =
b110011 ,
b110011 O
b110011 @
b110011 C
b110011 D
b110011 E
1'
#544000
0'
#546000
b110100 ,
b110100 O
b110100 @
b110100 C
b110100 D
b110100 E
b10001001 +
b10001001 N
b10001001 8
b10001001 ;
b10001001 <
b10001001 =
1'
#548000
0'
#550000
b10001010 +
b10001010 N
b10001010 8
b10001010 ;
b10001010 <
b10001010 =
b110101 ,
b110101 O
b110101 @
b110101 C
b110101 D
b110101 E
1'
#552000
0'
#554000
b110110 ,
b110110 O
b110110 @
b110110 C
b110110 D
b110110 E
b10001011 +
b10001011 N
b10001011 8
b10001011 ;
b10001011 <
b10001011 =
1'
#556000
0'
#558000
b10001100 +
b10001100 N
b10001100 8
b10001100 ;
b10001100 <
b10001100 =
b110111 ,
b110111 O
b110111 @
b110111 C
b110111 D
b110111 E
1'
#560000
0'
#562000
b111000 ,
b111000 O
b111000 @
b111000 C
b111000 D
b111000 E
b10001101 +
b10001101 N
b10001101 8
b10001101 ;
b10001101 <
b10001101 =
1'
#564000
0'
#566000
b10001110 +
b10001110 N
b10001110 8
b10001110 ;
b10001110 <
b10001110 =
b111001 ,
b111001 O
b111001 @
b111001 C
b111001 D
b111001 E
1'
#568000
0'
#570000
b111010 ,
b111010 O
b111010 @
b111010 C
b111010 D
b111010 E
b10001111 +
b10001111 N
b10001111 8
b10001111 ;
b10001111 <
b10001111 =
1'
#572000
0'
#574000
b10010000 +
b10010000 N
b10010000 8
b10010000 ;
b10010000 <
b10010000 =
b111011 ,
b111011 O
b111011 @
b111011 C
b111011 D
b111011 E
1'
#576000
0'
#578000
b111100 ,
b111100 O
b111100 @
b111100 C
b111100 D
b111100 E
b10010001 +
b10010001 N
b10010001 8
b10010001 ;
b10010001 <
b10010001 =
1'
#580000
0'
#582000
b10010010 +
b10010010 N
b10010010 8
b10010010 ;
b10010010 <
b10010010 =
b111101 ,
b111101 O
b111101 @
b111101 C
b111101 D
b111101 E
1'
#584000
0'
#586000
b111110 ,
b111110 O
b111110 @
b111110 C
b111110 D
b111110 E
b10010011 +
b10010011 N
b10010011 8
b10010011 ;
b10010011 <
b10010011 =
1'
#588000
0'
#590000
b10010100 +
b10010100 N
b10010100 8
b10010100 ;
b10010100 <
b10010100 =
b111111 ,
b111111 O
b111111 @
b111111 C
b111111 D
b111111 E
1'
#592000
0'
#594000
b1000000 ,
b1000000 O
b1000000 @
b1000000 C
b1000000 D
b1000000 E
b10010101 +
b10010101 N
b10010101 8
b10010101 ;
b10010101 <
b10010101 =
1'
#596000
0'
#598000
b10010110 +
b10010110 N
b10010110 8
b10010110 ;
b10010110 <
b10010110 =
b1000001 ,
b1000001 O
b1000001 @
b1000001 C
b1000001 D
b1000001 E
1'
#600000
0'
#602000
b1000010 ,
b1000010 O
b1000010 @
b1000010 C
b1000010 D
b1000010 E
b10010111 +
b10010111 N
b10010111 8
b10010111 ;
b10010111 <
b10010111 =
1'
#604000
0'
#606000
b10011000 +
b10011000 N
b10011000 8
b10011000 ;
b10011000 <
b10011000 =
b1000011 ,
b1000011 O
b1000011 @
b1000011 C
b1000011 D
b1000011 E
1'
#608000
0'
#610000
b1000100 ,
b1000100 O
b1000100 @
b1000100 C
b1000100 D
b1000100 E
b10011001 +
b10011001 N
b10011001 8
b10011001 ;
b10011001 <
b10011001 =
1'
#612000
0'
#614000
b10011010 +
b10011010 N
b10011010 8
b10011010 ;
b10011010 <
b10011010 =
b1000101 ,
b1000101 O
b1000101 @
b1000101 C
b1000101 D
b1000101 E
1'
#616000
0'
#618000
b1000110 ,
b1000110 O
b1000110 @
b1000110 C
b1000110 D
b1000110 E
b10011011 +
b10011011 N
b10011011 8
b10011011 ;
b10011011 <
b10011011 =
1'
#620000
0'
#622000
b10011100 +
b10011100 N
b10011100 8
b10011100 ;
b10011100 <
b10011100 =
b1000111 ,
b1000111 O
b1000111 @
b1000111 C
b1000111 D
b1000111 E
1'
#624000
0'
